…
``` r
co2 <- 
read_table("https://gml.noaa.gov/webdata/ccgg/trends/co2/co2_mm_mlo.txt", 
                  comment="#",
                  col_names = c("year", "month", "decimal_date", "monthly_average",
                                "interpolated", "days", "std", "uncertainty"),
                  na = c("-1", "-9.99", "-0.99"),
           col_types = "iidddddd")
co2
```

    ## # A tibble: 786 × 8
    ##     year month decimal_date monthly_average interpolated  days   std uncertainty
    ##    <int> <int>        <dbl>           <dbl>        <dbl> <dbl> <dbl>       <dbl>
    ##  1  1958     3        1958.            316.         314.    NA    NA          NA
    ##  2  1958     4        1958.            317.         315.    NA    NA          NA
    ##  3  1958     5        1958.            318.         315.    NA    NA          NA
    ##  4  1958     6        1958.            317.         315.    NA    NA          NA
    ##  5  1958     7        1959.            316.         315.    NA    NA          NA
    ##  6  1958     8        1959.            315.         316.    NA    NA          NA
    ##  7  1958     9        1959.            313.         316.    NA    NA          NA
    ##  8  1958    10        1959.            312.         315.    NA    NA          NA
    ##  9  1958    11        1959.            313.         315.    NA    NA          NA
    ## 10  1958    12        1959.            315.         315.    NA    NA          NA
    ## # ℹ 776 more rows
…
Data from:
<http://climate.nasa.gov/system/internal_resources/details/original/647_Global_Temperature_Data_File.txt>

``` r
global_temp<-
read_table("https://data.giss.nasa.gov/gistemp/graphs/graph_data/Global_Mean_Estimates_based_on_Land_and_Ocean_Data/graph.txt",
           skip=5, 
           col_names= c("year", "annual_mean", "lowess_smoothing"),
           show_col_types=FALSE)

global_temp
```

    ## # A tibble: 143 × 3
    ##     year annual_mean lowess_smoothing
    ##    <dbl>       <dbl>            <dbl>
    ##  1  1880       -0.17            -0.1 
    ##  2  1881       -0.09            -0.13
    ##  3  1882       -0.11            -0.17
    ##  4  1883       -0.17            -0.2 
    ##  5  1884       -0.28            -0.24
    ##  6  1885       -0.33            -0.26
    ##  7  1886       -0.32            -0.27
    ##  8  1887       -0.36            -0.27
    ##  9  1888       -0.18            -0.27
    ## 10  1889       -0.11            -0.26
    ## # ℹ 133 more rows
…
## Data Tables:

``` r
ice_original <- read_csv("http://climate.nasa.gov/system/internal_resources/details/original/499_GRN_ANT_mass_changes.csv",
                skip=10,
                col_names=c("decimal_date", "greenland_mass", "antarctic_mass"),
                col_types="ddd")
                
          
ice_original
```

    ## # A tibble: 140 × 3
    ##    decimal_date greenland_mass antarctic_mass
    ##           <dbl>          <dbl>          <dbl>
    ##  1        2002.          1491.           967.
    ##  2        2002.          1486.           979.
    ##  3        2003.          1287.           512.
    ##  4        2003.          1258.           859.
    ##  5        2003.          1257.           694.
    ##  6        2003.          1288.           592.
    ##  7        2003.          1337.           658.
    ##  8        2003.          1354.           477.
    ##  9        2003.          1363.           546.
    ## 10        2003.          1427.           494.
    ## # ℹ 130 more rows

``` r
ice_new<-ice_original%>%
  pivot_longer(greenland_mass:antarctic_mass, values_to="ice_mass", names_to="location")
ice_new
```

    ## # A tibble: 280 × 3
    ##    decimal_date location       ice_mass
    ##           <dbl> <chr>             <dbl>
    ##  1        2002. greenland_mass    1491.
    ##  2        2002. antarctic_mass     967.
    ##  3        2002. greenland_mass    1486.
    ##  4        2002. antarctic_mass     979.
    ##  5        2003. greenland_mass    1287.
    ##  6        2003. antarctic_mass     512.
    ##  7        2003. greenland_mass    1258.
    ##  8        2003. antarctic_mass     859.
    ##  9        2003. greenland_mass    1257.
    ## 10        2003. antarctic_mass     694.
    ## # ℹ 270 more rows
…
## Data Table:

``` r
sea_level<-read_table("http://climate.nasa.gov/system/internal_resources/details/original/121_Global_Sea_Level_Data_File.txt",

                      skip=30,
                      comment="HDR",
                      col_names=c("a", "b", "decimal_date","c", "d",
                      "e", "f", "g", "h", "i", "j", "height_variation"),
                      show_col_types=FALSE)
sea_level<-select(sea_level, decimal_date, height_variation)
sea_level
```

    ## # A tibble: 847 × 2
    ##    decimal_date height_variation
    ##           <dbl>            <dbl>
    ##  1        1993.           -14.1 
    ##  2        1993.           -14.7 
    ##  3        1993.           -14.2 
    ##  4        1993.           -14.2 
    ##  5        1993.           -13.0 
    ##  6        1993.           -11.8 
    ##  7        1993.           -10.6 
    ##  8        1993.            -9.73
    ##  9        1993.            -9.12
    ## 10        1993.            -8.76
    ## # ℹ 837 more rows
…
## Arctic Ice Data Table:

``` r
arctic_ice <- read_csv("ftp://sidads.colorado.edu/DATASETS/NOAA/G02135/north/daily/data/N_seaice_extent_daily_v3.0.csv",
                     skip=2,
                     col_names=c("year", "month", "day", "extent", "missing",
                                 "source"),
                     col_types= c("iiiddc"))
arctic_ice
```

    ## # A tibble: 14,747 × 6
    ##     year month   day extent missing source                                      
    ##    <int> <int> <int>  <dbl>   <dbl> <chr>                                       
    ##  1  1978    10    26   10.2       0 ['/ecs/DP1/PM/NSIDC-0051.001/1978.10.26/nt_…
    ##  2  1978    10    28   10.4       0 ['/ecs/DP1/PM/NSIDC-0051.001/1978.10.28/nt_…
    ##  3  1978    10    30   10.6       0 ['/ecs/DP1/PM/NSIDC-0051.001/1978.10.30/nt_…
    ##  4  1978    11     1   10.7       0 ['/ecs/DP1/PM/NSIDC-0051.001/1978.11.01/nt_…
    ##  5  1978    11     3   10.8       0 ['/ecs/DP1/PM/NSIDC-0051.001/1978.11.03/nt_…
    ##  6  1978    11     5   11.0       0 ['/ecs/DP1/PM/NSIDC-0051.001/1978.11.05/nt_…
    ##  7  1978    11     7   11.1       0 ['/ecs/DP1/PM/NSIDC-0051.001/1978.11.07/nt_…
    ##  8  1978    11     9   11.2       0 ['/ecs/DP1/PM/NSIDC-0051.001/1978.11.09/nt_…
    ##  9  1978    11    11   11.3       0 ['/ecs/DP1/PM/NSIDC-0051.001/1978.11.11/nt_…
    ## 10  1978    11    13   11.5       0 ['/ecs/DP1/PM/NSIDC-0051.001/1978.11.13/nt_…
    ## # ℹ 14,737 more rows
…
# Vostok Core Data Table

``` r
vostok<- read_table("https://www.ncei.noaa.gov/pub/data/paleo/icecore/antarctica/vostok/co2-noaa.txt",
                  comment="#", 
                  skip=4,
                  show_col_types=FALSE)%>%
                  arrange(desc(gas_ageBP))
vostok
```

    ## # A tibble: 65 × 6
    ##    depth_m ice_ageBP gas_ageBP CO2_mean CO2_max CO2_min
    ##      <dbl>     <dbl>     <dbl>    <dbl>   <dbl>   <dbl>
    ##  1   2078.    163670    159690     196.    202.    190.
    ##  2   2050.    159100    154970     191.    199.    184.
    ##  3   2026.    154980    150700     200.    208.    192.
    ##  4   1998     150330    146340     191     209     187 
    ##  5   1975.    146860    143370     217     221     213 
    ##  6   1949.    143440    140430     231     251     224 
    ##  7   1928     141170    138410     246.    264.    236.
    ##  8   1902     138660    136170     266     270     262 
    ##  9   1876.    136450    134170     296.    304.    284.
    ## 10   1850.    134510    132280     266     285     260 
    ## # ℹ 55 more rows
…
